<?xml version="1.0" standalone="no"?>
<!DOCTYPE svg PUBLIC "-//W3C//DTD SVG 1.1//EN" "http://www.w3.org/Graphics/SVG/1.1/DTD/svg11.dtd">
<svg xmlns="http://www.w3.org/2000/svg">
<metadata>Copyright (C) 2016 by original authors @ fontello.com</metadata>
<defs>
<font id="poex-icons" horiz-adv-x="1000" >
<font-face font-family="poex-icons" font-weight="400" font-stretch="normal" units-per-em="1000" ascent="850" descent="-150" />
<missing-glyph horiz-adv-x="1000" />
<glyph glyph-name="search" unicode="&#xe800;" d="M11 375q-23 87 0 173t87 150q48 49 110 74t128 25q65 0 127-25t110-74q52-52 77-119t21-137-36-132q28-8 49-29l174-173q35-35 35-85t-35-85q-35-35-85-35t-85 35l-173 174q-22 20-30 49-70-35-149-35-66 0-128 25t-110 73q-64 64-87 151z m101 86q0-93 65-158 66-65 159-65 92 0 157 65t66 158-66 158q-66 66-157 66-92 0-159-66-65-65-65-158z" horiz-adv-x="892.6" />

<glyph glyph-name="user-male" unicode="&#xe801;" d="M0-119q0 9 1 23t11 44 26 48q17 17 65 37t108 42 90 36q36 18 55 54t20 73q0 27-31 62-18 21-31 59-44 18-44 72 0 41 15 59-4 27-9 80-1 8-2 21t2 44 15 53q19 33 47 45t47 5q1 0 1 0 1 5 4 13t14 22 25 20q8 4 25 6t43 1 52-8 54-21 49-38 35-59 15-84q0-10 0-20-4-45-9-80 14-18 14-59 0-54-44-72-13-38-31-59-31-35-31-62 0-38 20-73t55-54q29-15 90-36t109-42 64-37q18-17 27-46t10-49l1-20h-977z" horiz-adv-x="977.5" />

<glyph glyph-name="down-open" unicode="&#xe802;" d="M0 533q0 25 18 43t44 18 42-18l305-303 304 303q18 18 43 18t43-18q18-18 18-43t-18-43l-390-391-391 391q-18 19-18 43z" horiz-adv-x="817.4" />

<glyph glyph-name="left-open" unicode="&#xe803;" d="M0 353l391 391q18 18 43 18 24 0 43-18 18-18 18-44t-18-43l-304-304 304-305q18-17 18-43t-18-43q-18-18-43-18t-43 18z" horiz-adv-x="495.1" />

<glyph glyph-name="right-open" unicode="&#xe804;" d="M0 0q0 25 18 43l305 304-305 304q-18 18-18 44t18 43 44 18 43-18l390-391-390-391q-19-18-43-18t-44 18q-18 18-18 44z" horiz-adv-x="495.1" />

<glyph glyph-name="down" unicode="&#xe805;" d="M0 283q0 25 18 43t44 18 42-18l244-243v642q0 25 18 43t43 18 43-18 18-43v-642l243 243q18 18 43 18t43-18q18-18 18-43t-18-44l-390-390-391 390q-18 20-18 44z" horiz-adv-x="817.4" />

<glyph glyph-name="left" unicode="&#xe806;" d="M0 353l390 391q19 18 44 18 25 0 43-18t18-44-18-43l-243-243h642q25 0 43-18t18-43-18-43-43-18h-642l243-243q18-18 18-44t-18-43-43-18-44 18z" horiz-adv-x="938" />

<glyph glyph-name="right" unicode="&#xe807;" d="M0 347q0 26 18 43t43 17h642l-242 244q-19 18-19 44t19 42q17 19 42 19t44-19l390-390-390-391q-20-18-44-18t-42 18-19 44 19 43l242 242h-642q-25 0-43 18t-18 44z" horiz-adv-x="938" />

<glyph glyph-name="up" unicode="&#xe808;" d="M0 354q0 26 18 44l391 390 390-390q18-18 18-44 0-26-18-43-18-18-43-18t-43 18l-243 243v-642q0-25-18-43t-43-18q-26 0-44 18t-17 43v642l-244-243q-18-18-43-18t-43 18q-18 17-18 43z" horiz-adv-x="817.4" />

<glyph glyph-name="up-open" unicode="&#xe809;" d="M0 167q0 26 18 43l391 391 390-391q17-17 17-43 0-26-17-44-18-17-44-17t-43 17l-303 305-305-305q-18-17-43-17t-43 17q-18 18-18 44z" horiz-adv-x="816.9" />

<glyph glyph-name="ok" unicode="&#xe80a;" d="M0 339q0-35 24-60l246-239q24-25 60-25 36 0 60 25l505 495q25 24 25 59t-25 58q-25 25-60 25t-60-25l-445-435-185 181q-25 24-60 24t-61-24q-24-24-24-59z" horiz-adv-x="920.4" />

<glyph glyph-name="cancel" unicode="&#xe80b;" d="M0 90q0 36 26 62l195 195-195 196q-26 25-26 61t26 61 61 25 61-25l196-196 195 196q25 25 61 25t61-25 25-61-25-61l-195-196 195-195q25-26 25-62t-25-61q-25-25-61-25t-61 25l-195 195-196-195q-25-25-61-25t-61 25q-26 26-26 61z" horiz-adv-x="686.5" />

<glyph glyph-name="menu" unicode="&#xe80c;" d="M68 62q0-30 21-51t51-21h793q30 0 51 21t21 51-21 51-51 21h-793q-29 0-51-21t-21-51z m0 288q0-30 21-51t51-21h793q30 0 51 21t21 51-21 51-51 21h-793q-29 0-51-21t-21-51z m0 288q0-30 21-51t51-21h793q30 0 51 21t21 51-21 51-51 21h-793q-29 0-51-21t-21-51z" horiz-adv-x="1073.2" />

<glyph glyph-name="zoom-in" unicode="&#xe80d;" d="M11 376q-24 91 0 181t92 158q51 51 115 77t134 26q69 0 134-26t115-77q54-53 80-124t23-143-38-139q31-10 52-31l181-182q38-37 38-89t-38-89-88-37q-52 0-89 37l-182 182q-20 20-31 52-75-37-157-37-69 0-134 26t-115 77q-68 68-92 158z m107 91q0-98 68-166 34-33 76-51t90-18q98 0 166 69 33 33 51 76t18 89q0 98-69 167-69 68-166 68-97 0-166-68t-68-166z m624 200q0 12 9 21t21 8h93v93q0 13 9 21t20 8 21-8 8-21v-93h94q11 0 20-8t9-21-9-21-20-8h-94v-94q0-12-8-20t-21-9q-12 0-20 9-9 8-9 20v94h-93q-12 0-21 8-9 9-9 21z" horiz-adv-x="1045.9" />

<glyph glyph-name="zoom-out" unicode="&#xe80e;" d="M11 376q-24 91 0 181t92 158q51 51 115 77t134 26q69 0 134-26t115-77q54-53 80-124t23-143-38-139q31-10 52-31l181-182q38-37 38-89t-38-89-88-37q-52 0-89 37l-182 182q-23 22-31 52-76-37-157-37-69 0-134 26t-115 77q-68 68-92 158z m107 91q0-98 68-166 34-33 76-51t90-18 90 18 76 51q33 33 51 76t18 89q0 98-69 167-33 32-76 50t-90 18q-97 0-166-68t-68-166z m624 200q0 12 9 21t21 8h244q12 0 21-8t9-21-9-21-21-8h-244q-12 0-21 8-9 9-9 21z" horiz-adv-x="1045.9" />

<glyph glyph-name="location" unicode="&#xe80f;" d="M0 473q0 70 27 134 25 61 74 111 47 47 110 73 63 27 134 27 72 0 135-27 62-26 110-73 48-49 74-111 27-64 27-134t-27-134q-18-40-36-65l-229-347q-22-35-53-35t-55 35l-228 347q-22 31-36 65-27 64-27 134z m217 0q0-53 37-91 38-38 91-38 54 0 91 38 38 37 38 91 0 53-38 91-37 38-91 38-53 0-91-38-37-38-37-91z" horiz-adv-x="691.4" />

<glyph glyph-name="login" unicode="&#xe810;" d="M0 359q0 33 24 57t57 23h344l-111 111q-24 23-24 56t24 58q24 23 57 23t57-23l247-248q24-24 24-57t-24-57l-242-242q-24-24-57-24t-57 24-23 56 23 58l106 105h-344q-34 0-57 23t-24 57z m582-397q0 33 23 57t57 23h72q18 0 30 13t12 29v532q0 17-12 29t-30 13h-72q-33 0-57 23t-23 57 23 57 57 23h72q84 0 144-59t59-143v-532q0-84-60-144t-143-59h-72q-33 0-57 24t-23 57z" horiz-adv-x="937.5" />

<glyph glyph-name="facebook" unicode="&#xe811;" d="M0 350h97v-469h193v469h130l17 161h-146v81q0 18 2 28t8 20 19 13 35 4h81v161h-129q-112 0-161-53t-49-157v-97h-97v-161z" horiz-adv-x="437.5" />

<glyph glyph-name="down-dir" unicode="&#xe812;" d="M540 587l-269-473-271 473 540 0z" horiz-adv-x="540" />

<glyph glyph-name="left-dir" unicode="&#xe813;" d="M510 93l-510 256 510 259 0-515z" horiz-adv-x="510" />

<glyph glyph-name="right-dir" unicode="&#xe814;" d="M0 608l510-257-510-258 0 515z" horiz-adv-x="510" />

<glyph glyph-name="up-dir" unicode="&#xe815;" d="M0 114l269 473 271-473-540 0z" horiz-adv-x="540" />

<glyph glyph-name="info-circled" unicode="&#xe816;" d="M0 350q0 95 37 182t100 149 149 100 183 37q95 0 182-37t149-100 100-149 37-182q0-95-37-182t-100-150-149-100-182-37q-96 0-183 37t-149 100-100 150-37 182z m398 170q0-29 20-46t51-17q32 0 51 17t19 46-19 45-51 17q-32 0-51-17t-20-45z m5-402h132v299h-132v-299z" horiz-adv-x="937.5" />

<glyph glyph-name="comment" unicode="&#xe817;" d="M0 404q0 67 27 130t75 114 114 89 145 59 166 21 166-21 146-59 113-89 76-114 26-130q0-84-42-160t-112-131-168-88-205-33q-105 0-201 31l-121-85q-67-42-94-24t-12 100l25 125q-60 55-92 122t-32 143z" horiz-adv-x="1054.7" />

<glyph glyph-name="help-circled" unicode="&#xe818;" d="M0 350q0 95 37 182t100 149 149 100 183 37q95 0 182-37t149-100 100-149 37-182-37-182-100-150-149-100-182-37q-96 0-183 37t-149 100-100 150-37 182z m333 175l31-101q46 29 92 29 50 0 50-22 0-5-2-8t-6-8-7-5-10-6-9-4l-40-21q-22-12-28-25t-6-37v-38h117v16q0 7 0 10t3 6 6 6q1 0 11 4t17 9 19 10 18 14q19 16 29 36t11 56q0 49-42 83t-106 34q-85 0-148-38z m48-333q0-32 21-49t55-17q33 0 54 17t20 49-20 49-54 18q-35 0-55-18t-21-49z" horiz-adv-x="937.5" />

<glyph glyph-name="home" unicode="&#xe819;" d="M0 340q-2 16 21 37l381 351q23 22 57 22t56-22l381-351q23-21 20-37t-30-15h-91v-305q0-32-23-55t-55-23h-517q-32 0-55 23t-23 55v305h-92q-27 0-30 15z" horiz-adv-x="916.5" />

<glyph glyph-name="th-thumb" unicode="&#xe81a;" d="M0-66v286q0 22 15 37t37 16h285q22 0 37-16t15-37v-286q0-21-15-36t-37-15h-285q-22 0-37 15t-15 36z m0 546v286q0 21 15 36t37 15h285q22 0 37-15t15-36v-286q0-22-15-37t-37-16h-285q-22 0-37 16t-15 37z m547-546v286q0 22 15 37t37 16h286q21 0 37-16t15-37v-286q0-21-15-36t-37-15h-286q-21 0-37 15t-15 36z m0 546v286q0 21 15 36t37 15h286q22 0 37-15t15-36v-286q0-22-15-37t-37-16h-286q-21 0-37 16t-15 37z" horiz-adv-x="937.5" />

<glyph glyph-name="th-list" unicode="&#xe81b;" d="M0 62q0-30 21-51t51-21h32q30 0 51 21t21 51-21 51-51 21h-32q-30 0-51-21t-21-51z m0 288q0-30 21-51t51-21h32q30 0 51 21t21 51-21 51-51 21h-32q-30 0-51-21t-21-51z m0 288q0-30 21-51t51-21h32q30 0 51 21t21 51-21 51-51 21h-32q-30 0-51-21t-21-51z m234-576q0-30 21-51t51-21h559q30 0 51 21t21 51-21 51-51 21h-559q-30 0-51-21t-21-51z m0 288q0-30 21-51t51-21h559q30 0 51 21t21 51-21 51-51 21h-559q-30 0-51-21t-21-51z m0 288q0-30 21-51t51-21h559q30 0 51 21t21 51-21 51-51 21h-559q-30 0-51-21t-21-51z" horiz-adv-x="937.5" />

<glyph glyph-name="tab-right" unicode="&#xe81c;" d="M136 793l1-6 324-91c178-49 327-91 331-92 10-4 23-13 33-23 12-13 19-24 25-41l3-8 0-189c0-160 0-190-1-196-6-27-28-55-54-67-5-3-85-23-334-85-180-45-327-82-328-82 0-1 0-3 0-7l1-6 329 82c328 83 329 83 339 88 13 6 21 12 31 23 13 13 22 29 27 47 1 6 2 13 2 200l0 194-3 8c-6 23-25 48-45 62-15 11 0 6-349 103-179 50-328 92-329 92l-3 1 0-7z" horiz-adv-x="1000" />

<glyph glyph-name="tab-down" unicode="&#xe81d;" d="M51 711c1-1 42-150 92-329 97-348 93-333 103-349 14-20 39-39 63-45l8-3 193 0c187 0 194 1 201 2 17 5 33 14 47 27 10 10 16 18 22 31 5 10 6 11 88 339l82 330-6 0c-4 0-6 0-7 0 0-1-37-148-82-328-62-249-82-329-85-334-12-26-40-48-67-54-6-1-36-1-196-1l-188 0-9 3c-17 6-28 13-41 25-10 10-19 23-22 33-2 4-44 153-93 332l-91 324-6 0-7 0 1-3z" horiz-adv-x="1000" />

<glyph glyph-name="basket" unicode="&#xe81e;" d="M447 784c-7-2-13-6-19-10-2-3-39-44-82-91l-77-86-9 0c-22 0-39-7-54-22-15-15-23-33-23-53 0-21 8-40 24-55 9-9 16-13 27-17 18-6 34-6 52 0 11 4 18 8 27 17 12 11 19 24 22 39 2 9 2 21 1 28l-1 4 80 88c43 48 80 90 82 92 1 3 3 5 3 5 0 0 2-2 3-5 2-2 39-44 82-92l80-88-1-4c-1-7-1-19 1-28 3-15 10-28 22-39 9-9 16-13 27-17 18-6 34-6 52 0 11 4 18 8 27 17 27 25 32 62 13 94-4 7-18 21-25 25-13 7-26 11-40 11l-9 0-80 88c-44 49-82 90-84 92-13 9-32 11-47 3-7-4-16-12-18-18-2-2-3-4-3-4 0 0-1 2-2 4-3 5-11 14-18 17-10 6-23 7-33 5z m-396-368c0-1 27-114 59-250 33-136 59-248 60-249 0-2 17-2 330-2 313 0 330 0 330 2 1 1 28 113 60 249 32 136 59 249 60 250l0 2-450 0-450 0 1-2z" horiz-adv-x="1000" />

<glyph glyph-name="tab-up" unicode="&#xe81f;" d="M314 713c-26-5-53-24-68-46-10-15-6-1-103-349-50-179-91-328-92-329l-1-3 7 0 6 0 91 325c49 178 91 327 93 331 3 10 12 23 22 33 13 12 24 19 41 25l9 3 188 0c160 0 190 0 196-1 27-6 55-28 67-54 3-5 23-85 85-334 45-180 82-327 82-328 1 0 3 0 7 0l6 0-82 330c-82 328-83 329-88 339-14 28-37 47-68 57l-6 3-193 0c-168 0-193 0-199-2z" horiz-adv-x="1000" />

<glyph glyph-name="tab-left" unicode="&#xe820;" d="M534 708c-351-98-335-93-351-104-20-14-39-39-45-62l-2-8 0-194c0-187 0-194 1-200 5-18 14-34 27-47 10-11 18-17 31-23 10-5 11-5 339-88l330-82 0 6c0 4 0 6 0 7-1 0-148 37-328 82-249 62-329 82-334 85-26 12-48 40-54 67-1 6-1 36-1 196l1 189 2 8c2 5 5 11 6 15 11 21 32 41 52 48 4 2 152 44 331 93 178 50 324 91 324 91 1 0 1 3 1 7l0 6-330-92z" horiz-adv-x="1000" />
</font>
</defs>
</svg>